C:\Users\Resti Pebriani\workspace\myindo-project-transfer-antar-karyawan\src\main\java\com\myindo\project\transferantarkaryawan\model\ResponseModel.java
C:\Users\Resti Pebriani\workspace\myindo-project-transfer-antar-karyawan\src\main\java\com\myindo\project\transferantarkaryawan\model\HasilGetTerima.java
C:\Users\Resti Pebriani\workspace\myindo-project-transfer-antar-karyawan\src\main\java\com\myindo\project\transferantarkaryawan\util\ParameterizedDB.java
C:\Users\Resti Pebriani\workspace\myindo-project-transfer-antar-karyawan\src\main\java\com\myindo\project\transferantarkaryawan\model\ParameterDB.java
C:\Users\Resti Pebriani\workspace\myindo-project-transfer-antar-karyawan\src\main\java\com\myindo\project\transferantarkaryawan\connection\Connect.java
C:\Users\Resti Pebriani\workspace\myindo-project-transfer-antar-karyawan\src\main\java\com\myindo\project\transferantarkaryawan\model\HasilGet.java
C:\Users\Resti Pebriani\workspace\myindo-project-transfer-antar-karyawan\src\main\java\com\myindo\project\transferantarkaryawan\model\RequestModel.java
C:\Users\Resti Pebriani\workspace\myindo-project-transfer-antar-karyawan\src\main\java\com\myindo\project\transferantarkaryawan\model\ResponseContentModel.java
C:\Users\Resti Pebriani\workspace\myindo-project-transfer-antar-karyawan\src\main\java\com\myindo\project\transferantarkaryawan\controller\Resources.java
C:\Users\Resti Pebriani\workspace\myindo-project-transfer-antar-karyawan\src\main\java\com\myindo\project\transferantarkaryawan\dao\TransferKaryawan.java
C:\Users\Resti Pebriani\workspace\myindo-project-transfer-antar-karyawan\src\main\java\com\myindo\project\transferantarkaryawan\process\ProsesTransfer.java
