C:\Users\Resti Pebriani\workspace\myindo-project-approve-data-karyawanhr\src\main\java\com\myindo\project\approvedatakaryawanhr\processor\ProccesApproveDataKaryawanHr.java
C:\Users\Resti Pebriani\workspace\myindo-project-approve-data-karyawanhr\src\main\java\com\myindo\project\approvedatakaryawanhr\model\RequestModel.java
C:\Users\Resti Pebriani\workspace\myindo-project-approve-data-karyawanhr\src\main\java\com\myindo\project\approvedatakaryawanhr\dao\GetDataKaryawanHr.java
C:\Users\Resti Pebriani\workspace\myindo-project-approve-data-karyawanhr\src\main\java\com\myindo\project\approvedatakaryawanhr\model\ParameterDB.java
C:\Users\Resti Pebriani\workspace\myindo-project-approve-data-karyawanhr\src\main\java\com\myindo\project\approvedatakaryawanhr\util\ParameterizedDB.java
C:\Users\Resti Pebriani\workspace\myindo-project-approve-data-karyawanhr\src\main\java\com\myindo\project\approvedatakaryawanhr\controller\Resource.java
C:\Users\Resti Pebriani\workspace\myindo-project-approve-data-karyawanhr\src\main\java\com\myindo\project\approvedatakaryawanhr\model\ResponseContentModel.java
C:\Users\Resti Pebriani\workspace\myindo-project-approve-data-karyawanhr\src\main\java\com\myindo\project\approvedatakaryawanhr\model\ResponseModel.java
C:\Users\Resti Pebriani\workspace\myindo-project-approve-data-karyawanhr\src\main\java\com\myindo\project\approvedatakaryawanhr\connection\Connect.java
C:\Users\Resti Pebriani\workspace\myindo-project-approve-data-karyawanhr\src\main\java\com\myindo\project\approvedatakaryawanhr\model\GetModel.java
