com\myindo\project\inquirylistredeem\controller\Resources.class
com\myindo\project\inquirylistredeem\connection\Connect.class
com\myindo\project\inquirylistredeem\model\RequestModel.class
com\myindo\project\inquirylistredeem\dao\GetListRedeem.class
com\myindo\project\inquirylistredeem\model\ResponseModel.class
com\myindo\project\inquirylistredeem\model\HasilListRedeem.class
com\myindo\project\inquirylistredeem\process\ProsesListRedeem.class
com\myindo\project\inquirylistredeem\model\ResponseContentModel.class
