C:\Users\Resti Pebriani\workspace\myindo-project-inquiry-detail-product\src\main\java\com\myindo\project\inquirydetailproduct\model\RequestModel.java
C:\Users\Resti Pebriani\workspace\myindo-project-inquiry-detail-product\src\main\java\com\myindo\project\inquirydetailproduct\model\ResponseModel.java
C:\Users\Resti Pebriani\workspace\myindo-project-inquiry-detail-product\src\main\java\com\myindo\project\inquirydetailproduct\process\ProsesGetDetailProduct.java
C:\Users\Resti Pebriani\workspace\myindo-project-inquiry-detail-product\src\main\java\com\myindo\project\inquirydetailproduct\connection\Connect.java
C:\Users\Resti Pebriani\workspace\myindo-project-inquiry-detail-product\src\main\java\com\myindo\project\inquirydetailproduct\controller\Resources.java
C:\Users\Resti Pebriani\workspace\myindo-project-inquiry-detail-product\src\main\java\com\myindo\project\inquirydetailproduct\model\ResponseContentModel.java
C:\Users\Resti Pebriani\workspace\myindo-project-inquiry-detail-product\src\main\java\com\myindo\project\inquirydetailproduct\dao\GetDetailProduct.java
C:\Users\Resti Pebriani\workspace\myindo-project-inquiry-detail-product\src\main\java\com\myindo\project\inquirydetailproduct\model\ResultGetProduct.java
C:\Users\Resti Pebriani\workspace\myindo-project-inquiry-detail-product\src\main\java\com\myindo\project\inquirydetailproduct\model\ParameterDB.java
C:\Users\Resti Pebriani\workspace\myindo-project-inquiry-detail-product\src\main\java\com\myindo\project\inquirydetailproduct\util\ParameterizedDB.java
