C:\Users\Resti Pebriani\workspace\myindo-project-inquiry-list-pengajuan-cuti-atasan\src\main\java\com\myindo\project\inquirylistpengajuancutiatasan\dao\GetListPecutiAtasan.java
C:\Users\Resti Pebriani\workspace\myindo-project-inquiry-list-pengajuan-cuti-atasan\src\main\java\com\myindo\project\inquirylistpengajuancutiatasan\util\ParameterizedDB.java
C:\Users\Resti Pebriani\workspace\myindo-project-inquiry-list-pengajuan-cuti-atasan\src\main\java\com\myindo\project\inquirylistpengajuancutiatasan\model\ParameterDB.java
C:\Users\Resti Pebriani\workspace\myindo-project-inquiry-list-pengajuan-cuti-atasan\src\main\java\com\myindo\project\inquirylistpengajuancutiatasan\model\ResponseModel.java
C:\Users\Resti Pebriani\workspace\myindo-project-inquiry-list-pengajuan-cuti-atasan\src\main\java\com\myindo\project\inquirylistpengajuancutiatasan\model\HasilModel.java
C:\Users\Resti Pebriani\workspace\myindo-project-inquiry-list-pengajuan-cuti-atasan\src\main\java\com\myindo\project\inquirylistpengajuancutiatasan\model\ResponseContentModel.java
C:\Users\Resti Pebriani\workspace\myindo-project-inquiry-list-pengajuan-cuti-atasan\src\main\java\com\myindo\project\inquirylistpengajuancutiatasan\model\RequestModel.java
C:\Users\Resti Pebriani\workspace\myindo-project-inquiry-list-pengajuan-cuti-atasan\src\main\java\com\myindo\project\inquirylistpengajuancutiatasan\processor\ProccessInquiryCutiAtasan.java
C:\Users\Resti Pebriani\workspace\myindo-project-inquiry-list-pengajuan-cuti-atasan\src\main\java\com\myindo\project\inquirylistpengajuancutiatasan\controller\Resource.java
C:\Users\Resti Pebriani\workspace\myindo-project-inquiry-list-pengajuan-cuti-atasan\src\main\java\com\myindo\project\inquirylistpengajuancutiatasan\connection\Connect.java
